{
  "defaultSeverity": "error",
  "extends": [
    "tslint:recommended"
  ],
  "rules": {
    "interface-name": false,
    "max-line-length": {
      "options": {
        "limit": 100,
        "ignore-pattern": "^import"
      }
    },
    "object-literal-sort-keys": false,
    "no-async-without-await": true,
    "whitespace": [true,
      "check-module",
      /* Default whitespace config below */
      "check-branch",
      "check-decl",
      "check-operator",
      "check-separator",
      "check-type",
      "check-typecast"
    ]
  },
  "jsRules": {
    "max-line-length": {
      "options": [
        100
      ]
    }
  }
}
